[gd_scene load_steps=7 format=2]

[ext_resource path="res://objects/Pasta.tscn" type="PackedScene" id=1]
[ext_resource path="res://assets/sprites/temp_tilemap.tres" type="TileSet" id=2]
[ext_resource path="res://assets/physics_materials/wet_ground.tres" type="PhysicsMaterial" id=3]
[ext_resource path="res://assets/physics_materials/dry_ground.tres" type="PhysicsMaterial" id=4]
[ext_resource path="res://assets/sprites/backgrounds.tres" type="TileSet" id=5]
[ext_resource path="res://assets/sprites/pasta_stash.png" type="Texture" id=6]

[node name="Map1" type="TileMap"]
tile_set = ExtResource( 2 )
cell_size = Vector2( 32, 32 )
format = 1
tile_data = PoolIntArray( -262146, 0, 0, -196610, 0, 0, -131074, 0, 0, -65538, 0, 0, -2, 0, 0, 65534, 0, 0, 100, 0, 0, 101, 0, 0, 102, 0, 0, 103, 0, 0, 104, 0, 0, 105, 0, 0, 106, 0, 0, 107, 0, 0, 108, 0, 0, 109, 0, 0, 110, 0, 0, 111, 0, 0, 112, 0, 0, 113, 0, 0, 114, 0, 0, 115, 0, 0, 116, 0, 0, 117, 0, 0, 118, 0, 0, 119, 0, 0, 120, 0, 0, 121, 0, 0, 122, 0, 0, 123, 0, 0, 124, 0, 0, 125, 0, 0, 126, 0, 0, 127, 0, 0, 131070, 0, 0, 65636, 0, 0, 65663, 0, 0, 196606, 0, 0, 131172, 0, 0, 131199, 0, 0, 262142, 0, 0, 196652, 0, 0, 196653, 0, 0, 196654, 0, 0, 196655, 1, 0, 196656, 1, 0, 196657, 1, 0, 196658, 1, 0, 196659, 1, 0, 196683, 0, 3, 196684, 0, 4, 196685, 0, 65538, 196708, 0, 0, 196721, 0, 65537, 196722, 1, 0, 196723, 1, 0, 196724, 1, 0, 196725, 1, 2, 196732, 1, 65537, 196733, 1, 0, 196734, 1, 0, 196735, 0, 0, 327678, 0, 0, 262190, 0, 0, 262191, 0, 0, 262192, 0, 0, 262193, 0, 0, 262194, 0, 0, 262195, 0, 0, 262217, 0, 3, 262218, 0, 4, 262219, 0, 65539, 262220, 0, 65540, 262244, 0, 0, 262248, 0, 0, 262249, 0, 0, 262250, 0, 0, 262251, 0, 0, 262252, 0, 0, 262253, 0, 0, 262254, 0, 0, 262255, 0, 0, 262256, 0, 0, 262257, 0, 0, 262261, 1, 1, 262262, 1, 2, 262267, 1, 65537, 262268, 1, 65538, 262271, 0, 0, 393214, 0, 0, 327726, 0, 0, 327727, 0, 0, 327728, 0, 0, 327729, 0, 0, 327730, 0, 0, 327731, 0, 0, 327751, 1, 3, 327752, 1, 4, 327753, 0, 65539, 327754, 0, 0, 327780, 0, 0, 327793, 0, 0, 327798, 1, 1, 327799, 1, 2, 327802, 1, 65537, 327803, 1, 65538, 327807, 0, 0, 458750, 0, 0, 393249, 1, 3, 393250, 1, 4, 393251, 1, 5, 393252, 1, 6, 393262, 0, 0, 393263, 0, 0, 393264, 0, 0, 393265, 0, 0, 393266, 0, 0, 393267, 0, 0, 393285, 1, 3, 393286, 1, 4, 393287, 1, 65539, 393288, 1, 65540, 393290, 0, 0, 393316, 0, 0, 393329, 0, 0, 393335, 1, 0, 393338, 1, 0, 393343, 0, 0, 524286, 0, 0, 458783, 1, 3, 458784, 1, 4, 458785, 1, 0, 458786, 1, 0, 458787, 1, 0, 458788, 1, 0, 458789, 1, 0, 458790, 1, 0, 458791, 1, 0, 458792, 1, 5, 458793, 1, 6, 458798, 0, 0, 458799, 0, 0, 458800, 0, 0, 458801, 0, 0, 458802, 0, 0, 458803, 0, 0, 458808, 1, 0, 458809, 1, 0, 458810, 1, 0, 458811, 1, 0, 458812, 1, 0, 458813, 1, 0, 458814, 1, 2, 458819, 1, 3, 458820, 1, 4, 458821, 1, 65539, 458822, 1, 65540, 458824, 0, 3, 458825, 0, 4, 458826, 0, 0, 458852, 0, 0, 458853, 0, 0, 458854, 0, 0, 458855, 0, 0, 458856, 0, 0, 458857, 0, 0, 458858, 0, 0, 458859, 0, 0, 458860, 0, 0, 458861, 0, 0, 458862, 0, 0, 458865, 0, 0, 458871, 1, 0, 458874, 1, 0, 458879, 0, 0, 589822, 0, 0, 524321, 0, 0, 524322, 0, 0, 524323, 0, 0, 524324, 0, 0, 524325, 0, 0, 524326, 0, 0, 524327, 0, 0, 524328, 1, 65541, 524329, 1, 65542, 524330, 1, 2, 524334, 0, 0, 524335, 0, 0, 524336, 0, 0, 524337, 0, 0, 524338, 0, 0, 524339, 0, 0, 524344, 0, 0, 524349, 0, 1, 524350, 0, 0, 524351, 0, 0, 524352, 0, 0, 524353, 0, 0, 524354, 0, 0, 524355, 0, 0, 524356, 0, 0, 524357, 0, 0, 524358, 0, 0, 524359, 0, 0, 524360, 0, 65539, 524361, 0, 65540, 524388, 0, 1, 524401, 0, 0, 524407, 1, 0, 524410, 1, 0, 524415, 0, 0, 655358, 0, 0, 655359, 0, 2, 589857, 0, 0, 589858, 0, 0, 589859, 0, 0, 589860, 0, 0, 589861, 0, 0, 589862, 0, 0, 589863, 0, 0, 589866, 1, 0, 589870, 0, 0, 589871, 0, 0, 589872, 0, 0, 589873, 0, 0, 589874, 0, 0, 589875, 0, 0, 589880, 0, 0, 589937, 0, 0, 589943, 1, 0, 589946, 1, 0, 589951, 0, 0, 720894, 0, 0, 720895, 0, 0, 655360, 0, 5, 655361, 0, 6, 655393, 0, 0, 655394, 0, 0, 655395, 0, 0, 655396, 0, 0, 655397, 0, 0, 655398, 0, 0, 655399, 0, 0, 655402, 1, 0, 655406, 0, 0, 655407, 0, 0, 655408, 0, 0, 655409, 0, 0, 655410, 0, 0, 655411, 0, 0, 655416, 0, 0, 655473, 0, 0, 655479, 1, 0, 655482, 1, 0, 655487, 0, 0, 786430, 0, 0, 786431, 0, 0, 720896, 0, 0, 720897, 0, 0, 720898, 0, 0, 720899, 0, 0, 720900, 0, 0, 720901, 0, 0, 720902, 0, 0, 720903, 0, 0, 720904, 0, 0, 720905, 0, 0, 720906, 0, 0, 720907, 0, 0, 720908, 0, 0, 720909, 0, 0, 720910, 0, 0, 720911, 0, 0, 720912, 0, 0, 720913, 0, 0, 720914, 1, 0, 720915, 1, 0, 720916, 1, 0, 720917, 1, 0, 720918, 1, 0, 720919, 1, 0, 720920, 1, 0, 720921, 1, 0, 720922, 1, 0, 720923, 1, 0, 720924, 1, 0, 720925, 1, 0, 720926, 0, 0, 720927, 0, 0, 720928, 0, 0, 720929, 0, 0, 720930, 0, 0, 720931, 0, 0, 720932, 0, 0, 720933, 0, 0, 720934, 0, 0, 720935, 0, 0, 720936, 0, 0, 720937, 0, 0, 720938, 0, 0, 720939, 0, 0, 720940, 0, 0, 720941, 0, 0, 720942, 0, 0, 720943, 0, 0, 720944, 0, 0, 720945, 0, 0, 720946, 0, 0, 720947, 0, 0, 720948, 0, 0, 720949, 0, 0, 720950, 0, 0, 720951, 0, 0, 720952, 0, 0, 720953, 0, 0, 720954, 0, 0, 720955, 0, 0, 720956, 0, 0, 720957, 0, 0, 720958, 0, 0, 720959, 0, 0, 720960, 0, 0, 720961, 0, 0, 720962, 0, 0, 720963, 0, 0, 720964, 0, 0, 720965, 0, 0, 720966, 0, 0, 720967, 0, 0, 720968, 0, 0, 720969, 0, 0, 720970, 0, 0, 720971, 0, 0, 720972, 0, 0, 720973, 0, 0, 720974, 1, 0, 720975, 1, 0, 720976, 1, 0, 720977, 1, 0, 720978, 1, 0, 720979, 1, 0, 720980, 1, 0, 720981, 1, 0, 720982, 0, 0, 720983, 0, 0, 720984, 0, 0, 720985, 0, 0, 720986, 0, 0, 720987, 0, 0, 720988, 0, 0, 720989, 0, 0, 720990, 0, 0, 720991, 0, 0, 720992, 0, 0, 720993, 0, 0, 720994, 0, 0, 720995, 0, 0, 720996, 0, 0, 720997, 0, 0, 720998, 0, 0, 720999, 0, 0, 721000, 0, 0, 721001, 0, 0, 721002, 0, 0, 721003, 0, 0, 721004, 0, 0, 721005, 0, 0, 721006, 0, 0, 721007, 0, 0, 721008, 0, 0, 721009, 0, 0, 721010, 0, 0, 721011, 0, 0, 721012, 0, 0, 721013, 0, 0, 721014, 0, 0, 721015, 1, 0, 721018, 1, 0, 721019, 0, 0, 721020, 0, 0, 721021, 0, 0, 721022, 0, 0, 721023, 0, 0, 786551, 1, 0, 786554, 1, 0, 852087, 1, 0, 852090, 1, 0, 917623, 1, 0, 917626, 1, 0, 983159, 1, 0, 983162, 1, 0, 1048695, 1, 0, 1048698, 1, 0, 1114231, 1, 0, 1114234, 1, 0, 1179767, 1, 0, 1179770, 1, 0, 1245303, 1, 0, 1245306, 1, 0, 1310839, 1, 0, 1310842, 1, 0, 1376375, 1, 0, 1376378, 1, 0, 1441911, 1, 0, 1441914, 1, 0, 1507447, 1, 0, 1507450, 1, 0, 1572983, 1, 0, 1572986, 1, 0, 1638519, 1, 0, 1638522, 1, 0, 1704055, 1, 0, 1704058, 1, 0, 1769591, 1, 0, 1769594, 1, 0, 1835127, 1, 0, 1835130, 1, 0, 1900637, 0, 0, 1900638, 0, 0, 1900639, 0, 0, 1900640, 0, 0, 1900641, 0, 0, 1900642, 0, 0, 1900643, 0, 0, 1900644, 0, 0, 1900645, 0, 0, 1900646, 0, 0, 1900647, 0, 0, 1900648, 0, 0, 1900649, 0, 0, 1900650, 0, 0, 1900651, 0, 0, 1900652, 0, 0, 1900653, 0, 0, 1900654, 0, 0, 1900655, 0, 0, 1900656, 0, 0, 1900657, 0, 0, 1900658, 0, 0, 1900659, 0, 0, 1900660, 0, 0, 1900661, 0, 0, 1900662, 0, 0, 1900663, 1, 0, 1900666, 1, 0, 1900667, 0, 0, 1900668, 0, 0, 1900669, 0, 0, 1900670, 0, 0, 1966173, 0, 0, 1966206, 0, 0, 2031709, 0, 0, 2031742, 0, 0, 2097245, 0, 0, 2097278, 0, 0, 2162781, 0, 0, 2162814, 0, 0, 2228317, 0, 0, 2228350, 0, 0, 2293853, 0, 0, 2293886, 0, 0, 2359389, 0, 0, 2359395, 0, 3, 2359396, 0, 4, 2359397, 0, 0, 2359398, 0, 0, 2359399, 0, 0, 2359400, 0, 0, 2359401, 0, 0, 2359402, 0, 0, 2359403, 0, 0, 2359404, 0, 0, 2359405, 0, 0, 2359406, 0, 0, 2359422, 0, 0, 2424925, 0, 0, 2424929, 0, 0, 2424930, 0, 0, 2424931, 0, 0, 2424932, 0, 0, 2424933, 0, 65538, 2424942, 0, 0, 2424958, 0, 0, 2490461, 0, 0, 2490478, 0, 0, 2490493, 0, 65537, 2490494, 0, 0, 2555997, 0, 0, 2556014, 0, 0, 2556028, 0, 65537, 2556029, 0, 0, 2556030, 0, 0, 2621533, 0, 0, 2621550, 0, 0, 2621562, 0, 3, 2621563, 0, 4, 2621564, 0, 0, 2621565, 0, 0, 2621566, 0, 0, 2687069, 0, 0, 2687070, 0, 0, 2687071, 0, 0, 2687072, 0, 0, 2687073, 0, 0, 2687074, 0, 0, 2687075, 0, 0, 2687076, 0, 0, 2687077, 0, 0, 2687078, 0, 0, 2687079, 0, 0, 2687080, 0, 0, 2687081, 0, 0, 2687082, 0, 0, 2687083, 0, 0, 2687084, 0, 0, 2687085, 0, 0, 2687086, 0, 0, 2687087, 0, 0, 2687088, 0, 0, 2687089, 0, 0, 2687090, 0, 0, 2687091, 0, 0, 2687092, 0, 0, 2687093, 0, 0, 2687094, 0, 0, 2687095, 0, 0, 2687096, 0, 0, 2687097, 0, 0, 2687098, 0, 0, 2687099, 0, 0, 2687100, 0, 0, 2687101, 0, 0, 2687102, 0, 0 )

[node name="targets" type="Node" parent="."]

[node name="Pasta" parent="targets" instance=ExtResource( 1 )]
position = Vector2( 1856, 320 )

[node name="Pasta2" parent="targets" instance=ExtResource( 1 )]
position = Vector2( 2576, 48 )

[node name="Pasta3" parent="targets" instance=ExtResource( 1 )]
position = Vector2( 1440, 320 )

[node name="Pasta4" parent="targets" instance=ExtResource( 1 )]

[node name="Pasta5" parent="targets" instance=ExtResource( 1 )]
position = Vector2( 1696, 320 )

[node name="Pasta6" parent="targets" instance=ExtResource( 1 )]
position = Vector2( 1432, 72 )

[node name="Pasta7" parent="targets" instance=ExtResource( 1 )]
position = Vector2( 2472, 168 )

[node name="Pasta8" parent="targets" instance=ExtResource( 1 )]
position = Vector2( 3872, 256 )

[node name="Pasta9" parent="targets" instance=ExtResource( 1 )]
position = Vector2( 3872, 448 )

[node name="Pasta10" parent="targets" instance=ExtResource( 1 )]
position = Vector2( 3872, 640 )

[node name="Pasta11" parent="targets" instance=ExtResource( 1 )]
position = Vector2( 3872, 896 )

[node name="Pasta12" parent="targets" instance=ExtResource( 1 )]
position = Vector2( 3488, 1248 )

[node name="Pasta13" parent="targets" instance=ExtResource( 1 )]
position = Vector2( 3456, 1280 )

[node name="Pasta14" parent="targets" instance=ExtResource( 1 )]
position = Vector2( 3456, 1248 )

[node name="Pasta15" parent="targets" instance=ExtResource( 1 )]
position = Vector2( 3424, 1280 )

[node name="Pasta16" parent="targets" instance=ExtResource( 1 )]
position = Vector2( 3456, 1120 )

[node name="Pasta17" parent="targets" instance=ExtResource( 1 )]
position = Vector2( 3488, 1280 )

[node name="Spawn" type="Position2D" parent="."]
position = Vector2( 0, -778.949 )

[node name="DryGround" type="StaticBody2D" parent="." groups=[
"solid",
]]
visible = false
physics_material_override = ExtResource( 4 )

[node name="CollisionPolygon2D" type="CollisionPolygon2D" parent="DryGround"]
polygon = PoolVector2Array( -64, -160, -32, -160, -32, 288, 0, 320, 64, 352, 576, 352, 576, 384, -64, 384 )

[node name="CollisionPolygon2D2" type="CollisionPolygon2D" parent="DryGround"]
polygon = PoolVector2Array( 960, 352, 1056, 352, 1056, 256, 1280, 256, 1280, 352, 1472, 352, 1472, 128, 1408, 128, 1408, 96, 1504, 96, 1504, 128, 1664, 128, 1664, 352, 1792, 352, 1792, 256, 1824, 256, 1824, 352, 2496, 352, 2496, 384, 960, 384 )

[node name="CollisionPolygon2D3" type="CollisionPolygon2D" parent="DryGround"]
polygon = PoolVector2Array( 1952, 256, 1984, 288, 2304, 288, 2368, 256, 2400, 256, 2400, 160, 2464, 128, 2496, 96, 2464, 96, 2336, 160, 2336, 192, 2208, 256 )

[node name="CollisionPolygon2D4" type="CollisionPolygon2D" parent="DryGround"]
polygon = PoolVector2Array( 2752, 352, 3616, 352, 3616, 160, 3328, 160, 3328, 128, 3616, 128, 3648, 96, 3648, 352, 3808, 352, 3808, 384, 2752, 384 )

[node name="CollisionPolygon2D5" type="CollisionPolygon2D" parent="DryGround"]
polygon = PoolVector2Array( 3552, 224, 3552, 256, 3232, 256, 3232, 288, 3200, 256, 3200, 0, 4096, 0, 4096, 384, 3936, 384, 3936, 352, 4064, 352, 4064, 32, 3232, 32, 3232, 224 )

[node name="CollisionPolygon2D6" type="CollisionPolygon2D" parent="DryGround"]
polygon = PoolVector2Array( 3936, 928, 4064, 928, 4064, 1344, 2976, 1344, 2976, 928, 3808, 928, 3808, 960, 3008, 960, 3008, 1312, 3520, 1312, 3520, 1184, 3264, 1184, 3232, 1216, 3104, 1216, 3104, 1184, 3168, 1184, 3232, 1152, 3552, 1152, 3552, 1312, 3904, 1312, 3968, 1280, 4032, 1216, 4032, 960, 3936, 960 )

[node name="WetGround" type="StaticBody2D" parent="." groups=[
"solid",
"wet",
]]
visible = false
physics_material_override = ExtResource( 3 )

[node name="CollisionPolygon2D" type="CollisionPolygon2D" parent="WetGround"]
polygon = PoolVector2Array( 576, 352, 960, 352, 960, 384, 576, 384 )

[node name="CollisionPolygon2D2" type="CollisionPolygon2D" parent="WetGround"]
polygon = PoolVector2Array( 992, 256, 1120, 192, 1184, 224, 1280, 224, 1344, 256, 1376, 288, 1376, 352, 1344, 352, 1344, 288, 1280, 256 )

[node name="CollisionPolygon2D3" type="CollisionPolygon2D" parent="WetGround"]
polygon = PoolVector2Array( 1504, 96, 1664, 96, 1664, 128, 1504, 128 )

[node name="CollisionPolygon2D4" type="CollisionPolygon2D" parent="WetGround"]
polygon = PoolVector2Array( 1792, 224, 1984, 224, 2016, 256, 1792, 256 )

[node name="CollisionPolygon2D5" type="CollisionPolygon2D" parent="WetGround"]
polygon = PoolVector2Array( 2144, 256, 2336, 160, 2336, 192, 2208, 256 )

[node name="CollisionPolygon2D6" type="CollisionPolygon2D" parent="WetGround"]
polygon = PoolVector2Array( 2496, 352, 2752, 352, 2752, 384, 2496, 384 )

[node name="CollisionPolygon2D7" type="CollisionPolygon2D" parent="WetGround"]
polygon = PoolVector2Array( 3648, 96, 3744, 96, 3840, 192, 3840, 960, 3808, 960, 3808, 192, 3744, 128, 3648, 128 )

[node name="CollisionPolygon2D8" type="CollisionPolygon2D" parent="WetGround"]
polygon = PoolVector2Array( 4064, 96, 4000, 96, 3904, 192, 3904, 960, 3936, 960, 3936, 192, 4000, 128, 4064, 128 )

[node name="Backgrounds" type="TileMap" parent="."]
z_index = -2
tile_set = ExtResource( 5 )
cell_size = Vector2( 32, 32 )
format = 1
tile_data = PoolIntArray( 100, 0, 0, 101, 0, 0, 102, 0, 0, 103, 0, 0, 104, 0, 0, 105, 0, 0, 106, 0, 0, 107, 0, 0, 108, 0, 0, 109, 0, 0, 110, 0, 0, 111, 0, 0, 112, 0, 0, 113, 0, 0, 114, 0, 0, 115, 0, 0, 116, 0, 0, 117, 0, 0, 118, 0, 0, 119, 0, 0, 120, 0, 0, 121, 0, 0, 122, 0, 0, 123, 0, 0, 124, 0, 0, 125, 0, 0, 126, 0, 0, 127, 0, 0, 65636, 0, 0, 65637, 0, 0, 65638, 0, 0, 65639, 0, 0, 65640, 0, 0, 65641, 0, 0, 65642, 0, 0, 65643, 0, 0, 65644, 0, 0, 65645, 0, 0, 65646, 0, 0, 65647, 0, 0, 65648, 0, 0, 65649, 0, 0, 65650, 0, 0, 65651, 0, 0, 65652, 0, 0, 65653, 0, 0, 65654, 0, 0, 65655, 0, 0, 65656, 0, 0, 65657, 0, 0, 65658, 0, 0, 65659, 0, 0, 65660, 0, 0, 65661, 0, 0, 65662, 0, 0, 65663, 0, 0, 131172, 0, 0, 131173, 0, 0, 131174, 0, 0, 131175, 0, 0, 131176, 0, 0, 131177, 0, 0, 131178, 0, 0, 131179, 0, 0, 131180, 0, 0, 131181, 0, 0, 131182, 0, 0, 131183, 0, 0, 131184, 0, 0, 131185, 0, 0, 131186, 0, 0, 131187, 0, 0, 131188, 0, 0, 131189, 0, 0, 131190, 0, 0, 131191, 0, 0, 131192, 0, 0, 131193, 0, 0, 131194, 0, 0, 131195, 0, 0, 131196, 0, 0, 131197, 0, 0, 131198, 0, 0, 131199, 0, 0, 196708, 0, 0, 196709, 0, 0, 196710, 0, 0, 196711, 0, 0, 196712, 0, 0, 196713, 0, 0, 196714, 0, 0, 196715, 0, 0, 196716, 0, 0, 196717, 0, 0, 196718, 0, 0, 196719, 0, 0, 196720, 0, 0, 196721, 0, 0, 196722, 0, 0, 196723, 0, 0, 196724, 0, 0, 196725, 0, 0, 196726, 0, 0, 196727, 0, 0, 196728, 0, 0, 196729, 0, 0, 196730, 0, 0, 196731, 0, 0, 196732, 0, 0, 196733, 0, 0, 196734, 0, 0, 196735, 0, 0, 262244, 0, 0, 262245, 0, 0, 262246, 0, 0, 262247, 0, 0, 262248, 0, 0, 262249, 0, 0, 262250, 0, 0, 262251, 0, 0, 262252, 0, 0, 262253, 0, 0, 262254, 0, 0, 262255, 0, 0, 262256, 0, 0, 262257, 0, 0, 262258, 0, 0, 262259, 0, 0, 262260, 0, 0, 262261, 0, 0, 262262, 0, 0, 262263, 0, 0, 262264, 0, 0, 262265, 0, 0, 262266, 0, 0, 262267, 0, 0, 262268, 0, 0, 262269, 0, 0, 262270, 0, 0, 262271, 0, 0, 327753, 0, 0, 327780, 0, 0, 327781, 0, 0, 327782, 0, 0, 327783, 0, 0, 327784, 0, 0, 327785, 0, 0, 327786, 0, 0, 327787, 0, 0, 327788, 0, 0, 327789, 0, 0, 327790, 0, 0, 327791, 0, 0, 327792, 0, 0, 327793, 0, 0, 327794, 0, 0, 327795, 0, 0, 327796, 0, 0, 327797, 0, 0, 327798, 0, 0, 327799, 0, 0, 327800, 0, 0, 327801, 0, 0, 327802, 0, 0, 327803, 0, 0, 327804, 0, 0, 327805, 0, 0, 327806, 0, 0, 327807, 0, 0, 393287, 0, 0, 393288, 0, 0, 393289, 0, 0, 393290, 0, 0, 393316, 0, 0, 393317, 0, 0, 393318, 0, 0, 393319, 0, 0, 393320, 0, 0, 393321, 0, 0, 393322, 0, 0, 393323, 0, 0, 393324, 0, 0, 393325, 0, 0, 393326, 0, 0, 393327, 0, 0, 393328, 0, 0, 393329, 0, 0, 393330, 0, 0, 393331, 0, 0, 393332, 0, 0, 393333, 0, 0, 393334, 0, 0, 393335, 0, 0, 393336, 0, 0, 393337, 0, 0, 393338, 0, 0, 393339, 0, 0, 393340, 0, 0, 393341, 0, 0, 393342, 0, 0, 393343, 0, 0, 458821, 0, 0, 458822, 0, 0, 458823, 0, 0, 458824, 0, 0, 458825, 0, 0, 458826, 0, 0, 458852, 0, 0, 458853, 0, 0, 458854, 0, 0, 458855, 0, 0, 458856, 0, 0, 458857, 0, 0, 458858, 0, 0, 458859, 0, 0, 458860, 0, 0, 458861, 0, 0, 458862, 0, 0, 458863, 0, 0, 458864, 0, 0, 458865, 0, 0, 458866, 0, 0, 458867, 0, 0, 458868, 0, 0, 458869, 0, 0, 458870, 0, 0, 458871, 0, 0, 458872, 0, 0, 458873, 0, 0, 458874, 0, 0, 458875, 0, 0, 458876, 0, 0, 458877, 0, 0, 458878, 0, 0, 458879, 0, 0, 524328, 0, 0, 524329, 0, 0, 524345, 0, 0, 524346, 0, 0, 524347, 0, 0, 524348, 0, 0, 524349, 0, 0, 524350, 0, 0, 524351, 0, 0, 524352, 0, 0, 524353, 0, 0, 524354, 0, 0, 524355, 0, 0, 524356, 0, 0, 524357, 0, 0, 524358, 0, 0, 524359, 0, 0, 524360, 0, 0, 524361, 0, 0, 524362, 0, 0, 524388, 0, 0, 524389, 0, 0, 524390, 0, 0, 524391, 0, 0, 524392, 0, 0, 524393, 0, 0, 524394, 0, 0, 524395, 0, 0, 524396, 0, 0, 524397, 0, 0, 524398, 0, 0, 524399, 0, 0, 524400, 0, 0, 524401, 0, 0, 524402, 0, 0, 524403, 0, 0, 524404, 0, 0, 524405, 0, 0, 524406, 0, 0, 524407, 0, 0, 524408, 0, 0, 524409, 0, 0, 524410, 0, 0, 524411, 0, 0, 524412, 0, 0, 524413, 0, 0, 524414, 0, 0, 524415, 0, 0, 589864, 0, 0, 589865, 0, 0, 589881, 0, 0, 589882, 0, 0, 589883, 0, 0, 589884, 0, 0, 589885, 0, 0, 589886, 0, 0, 589887, 0, 0, 589888, 0, 0, 589889, 0, 0, 589890, 0, 0, 589891, 0, 0, 589892, 0, 0, 589893, 0, 0, 589894, 0, 0, 589895, 0, 0, 589896, 0, 0, 589897, 0, 0, 589898, 0, 0, 589924, 0, 0, 589925, 0, 0, 589926, 0, 0, 589927, 0, 0, 589928, 0, 0, 589929, 0, 0, 589930, 0, 0, 589931, 0, 0, 589932, 0, 0, 589933, 0, 0, 589934, 0, 0, 589935, 0, 0, 589936, 0, 0, 589937, 0, 0, 589938, 0, 0, 589939, 0, 0, 589940, 0, 0, 589941, 0, 0, 589942, 0, 0, 589943, 0, 0, 589944, 0, 0, 589945, 0, 0, 589946, 0, 0, 589947, 0, 0, 589948, 0, 0, 589949, 0, 0, 589950, 0, 0, 589951, 0, 0, 655400, 0, 0, 655401, 0, 0, 655417, 0, 0, 655418, 0, 0, 655419, 0, 0, 655420, 0, 0, 655421, 0, 0, 655422, 0, 0, 655423, 0, 0, 655424, 0, 0, 655425, 0, 0, 655426, 0, 0, 655427, 0, 0, 655428, 0, 0, 655429, 0, 0, 655430, 0, 0, 655431, 0, 0, 655432, 0, 0, 655433, 0, 0, 655434, 0, 0, 655460, 0, 0, 655461, 0, 0, 655462, 0, 0, 655463, 0, 0, 655464, 0, 0, 655465, 0, 0, 655466, 0, 0, 655467, 0, 0, 655468, 0, 0, 655469, 0, 0, 655470, 0, 0, 655471, 0, 0, 655472, 0, 0, 655473, 0, 0, 655474, 0, 0, 655475, 0, 0, 655476, 0, 0, 655477, 0, 0, 655478, 0, 0, 655479, 0, 0, 655480, 0, 0, 655481, 0, 0, 655482, 0, 0, 655483, 0, 0, 655484, 0, 0, 655485, 0, 0, 655486, 0, 0, 655487, 0, 0, 720996, 0, 0, 720997, 0, 0, 720998, 0, 0, 720999, 0, 0, 721000, 0, 0, 721001, 0, 0, 721002, 0, 0, 721003, 0, 0, 721004, 0, 0, 721005, 0, 0, 721006, 0, 0, 721007, 0, 0, 721008, 0, 0, 721009, 0, 0, 721010, 0, 0, 721011, 0, 0, 721012, 0, 0, 721013, 0, 0, 721014, 0, 0, 721015, 0, 0, 721016, 0, 0, 721017, 0, 0, 721018, 0, 0, 721019, 0, 0, 721020, 0, 0, 721021, 0, 0, 721022, 0, 0, 721023, 0, 0, 786552, 0, 0, 786553, 0, 0, 852088, 0, 0, 852089, 0, 0, 917624, 0, 0, 917625, 0, 0, 983160, 0, 0, 983161, 0, 0, 1048696, 0, 0, 1048697, 0, 0, 1114232, 0, 0, 1114233, 0, 0, 1179768, 0, 0, 1179769, 0, 0, 1245304, 0, 0, 1245305, 0, 0, 1310840, 0, 0, 1310841, 0, 0, 1376376, 0, 0, 1376377, 0, 0, 1441912, 0, 0, 1441913, 0, 0, 1507448, 0, 0, 1507449, 0, 0, 1572984, 0, 0, 1572985, 0, 0, 1638520, 0, 0, 1638521, 0, 0, 1704056, 0, 0, 1704057, 0, 0, 1769592, 0, 0, 1769593, 0, 0, 1835128, 0, 0, 1835129, 0, 0, 1900637, 0, 0, 1900638, 0, 0, 1900639, 0, 0, 1900640, 0, 0, 1900641, 0, 0, 1900642, 0, 0, 1900643, 0, 0, 1900644, 0, 0, 1900645, 0, 0, 1900646, 0, 0, 1900647, 0, 0, 1900648, 0, 0, 1900649, 0, 0, 1900650, 0, 0, 1900651, 0, 0, 1900652, 0, 0, 1900653, 0, 0, 1900654, 0, 0, 1900655, 0, 0, 1900656, 0, 0, 1900657, 0, 0, 1900658, 0, 0, 1900659, 0, 0, 1900660, 0, 0, 1900661, 0, 0, 1900662, 0, 0, 1900663, 0, 0, 1900664, 0, 0, 1900665, 0, 0, 1900666, 0, 0, 1900667, 0, 0, 1900668, 0, 0, 1900669, 0, 0, 1900670, 0, 0, 1966173, 0, 0, 1966174, 0, 0, 1966175, 0, 0, 1966176, 0, 0, 1966177, 0, 0, 1966178, 0, 0, 1966179, 0, 0, 1966180, 0, 0, 1966181, 0, 0, 1966182, 0, 0, 1966183, 0, 0, 1966184, 0, 0, 1966185, 0, 0, 1966186, 0, 0, 1966187, 0, 0, 1966188, 0, 0, 1966189, 0, 0, 1966190, 0, 0, 1966191, 0, 0, 1966192, 0, 0, 1966193, 0, 0, 1966194, 0, 0, 1966195, 0, 0, 1966196, 0, 0, 1966197, 0, 0, 1966198, 0, 0, 1966199, 0, 0, 1966200, 0, 0, 1966201, 0, 0, 1966202, 0, 0, 1966203, 0, 0, 1966204, 0, 0, 1966205, 0, 0, 1966206, 0, 0, 2031709, 0, 0, 2031710, 0, 0, 2031711, 0, 0, 2031712, 0, 0, 2031713, 0, 0, 2031714, 0, 0, 2031715, 0, 0, 2031716, 0, 0, 2031717, 0, 0, 2031718, 0, 0, 2031719, 0, 0, 2031720, 0, 0, 2031721, 0, 0, 2031722, 0, 0, 2031723, 0, 0, 2031724, 0, 0, 2031725, 0, 0, 2031726, 0, 0, 2031727, 0, 0, 2031728, 0, 0, 2031729, 0, 0, 2031730, 0, 0, 2031731, 0, 0, 2031732, 0, 0, 2031733, 0, 0, 2031734, 0, 0, 2031735, 0, 0, 2031736, 0, 0, 2031737, 0, 0, 2031738, 0, 0, 2031739, 0, 0, 2031740, 0, 0, 2031741, 0, 0, 2031742, 0, 0, 2097245, 0, 0, 2097246, 0, 0, 2097247, 0, 0, 2097248, 0, 0, 2097249, 0, 0, 2097250, 0, 0, 2097251, 0, 0, 2097252, 0, 0, 2097253, 0, 0, 2097254, 0, 0, 2097255, 0, 0, 2097256, 0, 0, 2097257, 0, 0, 2097258, 0, 0, 2097259, 0, 0, 2097260, 0, 0, 2097261, 0, 0, 2097262, 0, 0, 2097263, 0, 0, 2097264, 0, 0, 2097265, 0, 0, 2097266, 0, 0, 2097267, 0, 0, 2097268, 0, 0, 2097269, 0, 0, 2097270, 0, 0, 2097271, 0, 0, 2097272, 0, 0, 2097273, 0, 0, 2097274, 0, 0, 2097275, 0, 0, 2097276, 0, 0, 2097277, 0, 0, 2097278, 0, 0, 2162781, 0, 0, 2162782, 0, 0, 2162783, 0, 0, 2162784, 0, 0, 2162785, 0, 0, 2162786, 0, 0, 2162787, 0, 0, 2162788, 0, 0, 2162789, 0, 0, 2162790, 0, 0, 2162791, 0, 0, 2162792, 0, 0, 2162793, 0, 0, 2162794, 0, 0, 2162795, 0, 0, 2162796, 0, 0, 2162797, 0, 0, 2162798, 0, 0, 2162799, 0, 0, 2162800, 0, 0, 2162801, 0, 0, 2162802, 0, 0, 2162803, 0, 0, 2162804, 0, 0, 2162805, 0, 0, 2162806, 0, 0, 2162807, 0, 0, 2162808, 0, 0, 2162809, 0, 0, 2162810, 0, 0, 2162811, 0, 0, 2162812, 0, 0, 2162813, 0, 0, 2162814, 0, 0, 2228317, 0, 0, 2228318, 0, 0, 2228319, 0, 0, 2228320, 0, 0, 2228321, 0, 0, 2228322, 0, 0, 2228323, 0, 0, 2228324, 0, 0, 2228325, 0, 0, 2228326, 0, 0, 2228327, 0, 0, 2228328, 0, 0, 2228329, 0, 0, 2228330, 0, 0, 2228331, 0, 0, 2228332, 0, 0, 2228333, 0, 0, 2228334, 0, 0, 2228335, 0, 0, 2228336, 0, 0, 2228337, 0, 0, 2228338, 0, 0, 2228339, 0, 0, 2228340, 0, 0, 2228341, 0, 0, 2228342, 0, 0, 2228343, 0, 0, 2228344, 0, 0, 2228345, 0, 0, 2228346, 0, 0, 2228347, 0, 0, 2228348, 0, 0, 2228349, 0, 0, 2228350, 0, 0, 2293853, 0, 0, 2293854, 0, 0, 2293855, 0, 0, 2293856, 0, 0, 2293857, 0, 0, 2293858, 0, 0, 2293859, 0, 0, 2293860, 0, 0, 2293861, 0, 0, 2293862, 0, 0, 2293863, 0, 0, 2293864, 0, 0, 2293865, 0, 0, 2293866, 0, 0, 2293867, 0, 0, 2293868, 0, 0, 2293869, 0, 0, 2293870, 0, 0, 2293871, 0, 0, 2293872, 0, 0, 2293873, 0, 0, 2293874, 0, 0, 2293875, 0, 0, 2293876, 0, 0, 2293877, 0, 0, 2293878, 0, 0, 2293879, 0, 0, 2293880, 0, 0, 2293881, 0, 0, 2293882, 0, 0, 2293883, 0, 0, 2293884, 0, 0, 2293885, 0, 0, 2293886, 0, 0, 2359389, 0, 0, 2359390, 0, 0, 2359391, 0, 0, 2359392, 0, 0, 2359393, 0, 0, 2359394, 0, 0, 2359395, 0, 0, 2359396, 0, 0, 2359397, 0, 0, 2359398, 0, 0, 2359399, 0, 0, 2359400, 0, 0, 2359401, 0, 0, 2359402, 0, 0, 2359403, 0, 0, 2359404, 0, 0, 2359405, 0, 0, 2359406, 0, 0, 2359407, 0, 0, 2359408, 0, 0, 2359409, 0, 0, 2359410, 0, 0, 2359411, 0, 0, 2359412, 0, 0, 2359413, 0, 0, 2359414, 0, 0, 2359415, 0, 0, 2359416, 0, 0, 2359417, 0, 0, 2359418, 0, 0, 2359419, 0, 0, 2359420, 0, 0, 2359421, 0, 0, 2359422, 0, 0, 2424925, 0, 0, 2424926, 0, 0, 2424927, 0, 0, 2424928, 0, 0, 2424929, 0, 0, 2424930, 0, 0, 2424931, 0, 0, 2424932, 0, 0, 2424933, 0, 0, 2424934, 0, 0, 2424935, 0, 0, 2424936, 0, 0, 2424937, 0, 0, 2424938, 0, 0, 2424939, 0, 0, 2424940, 0, 0, 2424941, 0, 0, 2424942, 0, 0, 2424943, 0, 0, 2424944, 0, 0, 2424945, 0, 0, 2424946, 0, 0, 2424947, 0, 0, 2424948, 0, 0, 2424949, 0, 0, 2424950, 0, 0, 2424951, 0, 0, 2424952, 0, 0, 2424953, 0, 0, 2424954, 0, 0, 2424955, 0, 0, 2424956, 0, 0, 2424957, 0, 0, 2424958, 0, 0, 2490461, 0, 0, 2490462, 0, 0, 2490463, 0, 0, 2490464, 0, 0, 2490465, 0, 0, 2490466, 0, 0, 2490467, 0, 0, 2490468, 0, 0, 2490469, 0, 0, 2490470, 0, 0, 2490471, 0, 0, 2490472, 0, 0, 2490473, 0, 0, 2490474, 0, 0, 2490475, 0, 0, 2490476, 0, 0, 2490477, 0, 0, 2490478, 0, 0, 2490479, 0, 0, 2490480, 0, 0, 2490481, 0, 0, 2490482, 0, 0, 2490483, 0, 0, 2490484, 0, 0, 2490485, 0, 0, 2490486, 0, 0, 2490487, 0, 0, 2490488, 0, 0, 2490489, 0, 0, 2490490, 0, 0, 2490491, 0, 0, 2490492, 0, 0, 2490493, 0, 0, 2490494, 0, 0, 2555997, 0, 0, 2555998, 0, 0, 2555999, 0, 0, 2556000, 0, 0, 2556001, 0, 0, 2556002, 0, 0, 2556003, 0, 0, 2556004, 0, 0, 2556005, 0, 0, 2556006, 0, 0, 2556007, 0, 0, 2556008, 0, 0, 2556009, 0, 0, 2556010, 0, 0, 2556011, 0, 0, 2556012, 0, 0, 2556013, 0, 0, 2556014, 0, 0, 2556015, 0, 0, 2556016, 0, 0, 2556017, 0, 0, 2556018, 0, 0, 2556019, 0, 0, 2556020, 0, 0, 2556021, 0, 0, 2556022, 0, 0, 2556023, 0, 0, 2556024, 0, 0, 2556025, 0, 0, 2556026, 0, 0, 2556027, 0, 0, 2556028, 0, 0, 2556029, 0, 0, 2556030, 0, 0, 2621533, 0, 0, 2621534, 0, 0, 2621535, 0, 0, 2621536, 0, 0, 2621537, 0, 0, 2621538, 0, 0, 2621539, 0, 0, 2621540, 0, 0, 2621541, 0, 0, 2621542, 0, 0, 2621543, 0, 0, 2621544, 0, 0, 2621545, 0, 0, 2621546, 0, 0, 2621547, 0, 0, 2621548, 0, 0, 2621549, 0, 0, 2621550, 0, 0, 2621551, 0, 0, 2621552, 0, 0, 2621553, 0, 0, 2621554, 0, 0, 2621555, 0, 0, 2621556, 0, 0, 2621557, 0, 0, 2621558, 0, 0, 2621559, 0, 0, 2621560, 0, 0, 2621561, 0, 0, 2621562, 0, 0, 2621563, 0, 0, 2621564, 0, 0, 2621565, 0, 0, 2621566, 0, 0, 2687069, 0, 0, 2687070, 0, 0, 2687071, 0, 0, 2687072, 0, 0, 2687073, 0, 0, 2687074, 0, 0, 2687075, 0, 0, 2687076, 0, 0, 2687077, 0, 0, 2687078, 0, 0, 2687079, 0, 0, 2687080, 0, 0, 2687081, 0, 0, 2687082, 0, 0, 2687083, 0, 0, 2687084, 0, 0, 2687085, 0, 0, 2687086, 0, 0, 2687087, 0, 0, 2687088, 0, 0, 2687089, 0, 0, 2687090, 0, 0, 2687091, 0, 0, 2687092, 0, 0, 2687093, 0, 0, 2687094, 0, 0, 2687095, 0, 0, 2687096, 0, 0, 2687097, 0, 0, 2687098, 0, 0, 2687099, 0, 0, 2687100, 0, 0, 2687101, 0, 0, 2687102, 0, 0 )

[node name="pasta_stash2" type="Sprite" parent="."]
position = Vector2( 3872, 96 )
scale = Vector2( 2, 2 )
z_index = -1
texture = ExtResource( 6 )

[node name="pasta_stash" type="Sprite" parent="."]
position = Vector2( 3712, 1120 )
scale = Vector2( 2, 2 )
z_index = -1
texture = ExtResource( 6 )
